<svg xmlns="http://www.w3.org/2000/svg" width="21" height="16" viewBox="0 0 21 16">
  <path fill="#B4BF64" fill-rule="evenodd" stroke="#B4BF64" stroke-width="2" d="M11.5404157,16.002034 L11.5983822,16.0600004 L22.8959519,5 L22.1359519,4.23999998 L11.558153,14.5953651 L6.65595195,9.73999998 L5.89595193,10.5 L11.4959522,16.0464975 L11.5404157,16.002034 Z" transform="translate(-4 -2)"/>
</svg>
