<svg width="35px" height="35px" viewBox="17 16 35 35" version="1.1" xmlns="http://www.w3.org/2000/svg" xmlns:xlink="http://www.w3.org/1999/xlink">
    <g stroke="none" stroke-width="1" fill="none" fill-rule="evenodd" transform="translate(17.000000, 16.000000)">
        <ellipse fill="#666666" cx="17.5" cy="17.5" rx="16.7857143" ry="16.7857143"></ellipse>
        <g transform="translate(7.428571, 8.267857)" fill="#FFFFFF">
            <ellipse cx="16.6891889" cy="13.3247404" rx="3.26061743" ry="3.25331183"></ellipse>
            <rect transform="translate(6.797446, 8.282859) rotate(36.000000) translate(-6.797446, -8.282859) " x="5.95816001" y="0.729287419" width="1.67857143" height="15.1071429"></rect>
            <rect transform="translate(13.511731, 8.282859) rotate(-36.000000) translate(-13.511731, -8.282859) " x="12.6724457" y="0.729287419" width="1.67857143" height="15.1071429"></rect>
            <ellipse cx="3.26061743" cy="13.3247404" rx="3.26061743" ry="3.25331183"></ellipse>
            <ellipse cx="10.3106123" cy="3.25331183" rx="3.26061743" ry="3.25331183"></ellipse>
        </g>
    </g>
</svg>
