<svg xmlns="http://www.w3.org/2000/svg" width="7" height="13" viewBox="0 0 7 13">
  <text fill="#8C8C8C" fill-rule="evenodd" font-family="FontAwesome" font-size="12" transform="translate(-19 -48)">
    <tspan x="19" y="59"></tspan>
  </text>
</svg>
