<svg xmlns="http://www.w3.org/2000/svg" width="13" height="13" viewBox="0 0 13 13">
  <defs>
    <linearGradient id="status-success-a" x1="-21.796%" x2="321.439%" y1="119.918%" y2="-200.493%">
      <stop offset="0%" stop-color="#9BA837"/>
      <stop offset="100%" stop-color="#C7CE8F"/>
    </linearGradient>
  </defs>
  <path fill="url(#status-success-a)" fill-rule="evenodd" d="M7.53068484,12.9014235 C4.01222304,12.9014235 1.1599462,10.0491466 1.1599462,6.53068484 C1.1599462,3.01222304 4.01222304,0.1599462 7.53068484,0.1599462 C11.0491466,0.1599462 13.9014235,3.01222304 13.9014235,6.53068484 C13.9014235,10.0491466 11.0491466,12.9014235 7.53068484,12.9014235 Z M12.0236346,4.55528875 C12.0236346,4.41591775 11.9672668,4.27654675 11.8658047,4.17619963 L11.0992023,3.41802141 C10.9977402,3.31767429 10.8568206,3.26192589 10.7159011,3.26192589 C10.5749815,3.26192589 10.4340619,3.31767429 10.3325998,3.41802141 L6.63487047,7.08069123 L4.9776564,5.43611345 C4.87619431,5.33576634 4.73527475,5.28001794 4.59435518,5.28001794 C4.45343562,5.28001794 4.31251605,5.33576634 4.21105397,5.43611345 L3.44445154,6.19429168 C3.34298945,6.2946388 3.28662163,6.4340098 3.28662163,6.57338079 C3.28662163,6.71275179 3.34298945,6.85212279 3.44445154,6.95246991 L6.25156926,9.72874018 C6.35303135,9.8290873 6.49395091,9.8848357 6.63487047,9.8848357 C6.77579004,9.8848357 6.9167096,9.8290873 7.01817169,9.72874018 L11.8658047,4.93437786 C11.9672668,4.83403074 12.0236346,4.69465975 12.0236346,4.55528875 Z" transform="translate(-1)"/>
</svg>
