<svg xmlns="http://www.w3.org/2000/svg" width="14" height="13" viewBox="0 0 14 13">
  <text fill="#133A65" fill-rule="evenodd" font-family="FontAwesome" font-size="14" transform="translate(-719 -86)">
    <tspan x="719" y="97.951"></tspan>
  </text>
</svg>
