<svg width="19px" height="22px" viewBox="0 0 19 22" version="1.1" xmlns="http://www.w3.org/2000/svg" xmlns:xlink="http://www.w3.org/1999/xlink">
    <path d="M14.327134,0 L18.0714286,3.7442946 L18.0714286,22 L0,22 L0,0 L14.327134,0 Z M8.9047619,16.9761905 L8.9047619,18.4761905 L15.1904762,18.4761905 L15.1904762,16.9761905 L8.9047619,16.9761905 Z M2,6.6968122 L2,8.0483105 L3.4007069,9.4490175 L7.4800502,6.5 L5.6795365,6.5 L3.4725749,7.993292 L2,6.6968122 Z M2,11.6968122 L2,13.0483105 L3.4007069,14.4490175 L7.4800502,11.5 L5.6795365,11.5 L3.4725749,12.993292 L2,11.6968122 Z M2,16.6968122 L2,18.0483105 L3.4007069,19.4490175 L7.4800502,16.5 L5.6795365,16.5 L3.4725749,17.993292 L2,16.6968122 Z M13.3571429,3.6666667 L13.3571429,0.7857143 L12.6306152,0.7857143 L12.6306152,4.35839844 L16.5,4.35839844 L16.5,3.6666667 L13.3571429,3.6666667 Z M8.9047619,12.047619 L8.9047619,13.547619 L15.1904762,13.547619 L15.1904762,12.047619 L8.9047619,12.047619 Z M8.9047619,7.3333333 L8.9047619,8.8333333 L15.1904762,8.8333333 L15.1904762,7.3333333 L8.9047619,7.3333333 Z" stroke="none" fill="#666666" fill-rule="evenodd"></path>
</svg>
