{
  "swagger": "2.0",
  "info": {
    "version": "1.0.0",
    "title": "File Manager Service"
  },
  "paths": {
    "/organizations/{orgid}/projects/{prjid}/categories": {
      "get": {
        "description": "Get all categories for the specified project ID.\n",
        "parameters": [
          {
            "name": "orgid",
            "in": "path",
            "description": "Organization ID",
            "required": true,
            "type": "string",
            "format": "string"
          },
          {
            "name": "prjid",
            "in": "path",
            "description": "Project ID",
            "required": true,
            "type": "string",
            "format": "string"
          },
          {
            "name": "offset",
            "in": "query",
            "description": "Index of the first element returned by the request",
            "required": false,
            "type": "integer",
            "format": "string"
          },
          {
            "name": "limit",
            "in": "query",
            "description": "The max number of records returned by the request",
            "required": false,
            "type": "integer",
            "format": "string"
          },
          {
            "name": "sort",
            "in": "query",
            "description": "Sort records by the specified field, default is to sort by the index field. If the field is prefixed by \"-\" then a descending sort is performed.\n",
            "required": false,
            "type": "string",
            "format": "string"
          }
        ],
        "responses": {
          "200": {
            "description": "Array of Category items will be returned sorted in priority order. A null array will be returned if no Category items exists for the project ID.",
            "schema": {
              "type": "array",
              "items": {
                "$ref": "#/definitions/Categories"
              }
            }
          },
          "404": {
            "description": "FileDetails not found, they are either deleted or doesnot exists.",
            "schema": {
              "$ref": "#/definitions/StandardResponseForError"
            }
          },
          "500": {
            "description": "Internal Servicer Error",
            "schema": {
              "$ref": "#/definitions/Error"
            }
          },
          "default": {
            "description": "Unexpected error",
            "schema": {
              "$ref": "#/definitions/Error"
            }
          }
        }
      }
    },
    "/organizations/{orgid}/projects/{prjid}/categories/{id}/files": {
      "get": {
        "description": "Gets the details of all filedetails for specified parameters.\n",
        "parameters": [
          {
            "name": "orgid",
            "in": "path",
            "description": "organization id",
            "required": true,
            "type": "string",
            "format": "string"
          },
          {
            "name": "prjid",
            "in": "path",
            "description": "project id",
            "required": true,
            "type": "string",
            "format": "string"
          },
          {
            "name": "id",
            "in": "path",
            "description": "classification id",
            "required": true,
            "type": "string",
            "format": "string"
          }
        ],
        "responses": {
          "200": {
            "description": "Array of FileDetails will be returned. Null array will be returned if no FileDetails exists",
            "schema": {
              "type": "array",
              "items": {
                "$ref": "#/definitions/Filedetails"
              }
            }
          },
          "404": {
            "description": "FileDetails not found, either it got deleted or does not exists",
            "schema": {
              "$ref": "#/definitions/StandardResponseForError"
            }
          },
          "500": {
            "description": "Internal Servicer Error",
            "schema": {
              "$ref": "#/definitions/Error"
            }
          },
          "default": {
            "description": "Unexpected error",
            "schema": {
              "$ref": "#/definitions/Error"
            }
          }
        }
      }
    },
    "/organizations/{orgid}/files/counts": {
      "get": {
        "description": "Gets the count details of all filedetails.\n",
        "parameters": [
          {
            "name": "orgid",
            "in": "path",
            "description": "organization id",
            "required": true,
            "type": "string",
            "format": "string"
          }
        ],
        "responses": {
          "200": {
            "description": "Array of FileDetails will be returned. Null array will be returned if no FileDetails exists",
            "schema": {
              "type": "array",
              "items": {
                "$ref": "#/definitions/CountStatistic"
              }
            }
          },
          "404": {
            "description": "Data is not available",
            "schema": {
              "$ref": "#/definitions/Error"
            }
          },
          "500": {
            "description": "Internal Servicer Error",
            "schema": {
              "$ref": "#/definitions/Error"
            }
          },
          "default": {
            "description": "Unexpected error",
            "schema": {
              "$ref": "#/definitions/Error"
            }
          }
        }
      }
    },
    "/organizations/{orgid}/projects/{prjid}/files/counts": {
      "get": {
        "description": "Gets the count details of project id.\n",
        "parameters": [
          {
            "name": "orgid",
            "in": "path",
            "description": "organization id",
            "required": true,
            "type": "string",
            "format": "string"
          },
          {
            "name": "prjid",
            "in": "path",
            "description": "project id",
            "required": true,
            "type": "string",
            "format": "string"
          }
        ],
        "responses": {
          "200": {
            "description": "Array of CountStatistic will be returned.",
            "schema": {
              "type": "array",
              "items": {
                "$ref": "#/definitions/CountStatistic"
              }
            }
          },
          "404": {
            "description": "FileDetails not found, either they got deleted or does not exists.",
            "schema": {
              "$ref": "#/definitions/StandardResponseForError"
            }
          },
          "500": {
            "description": "Internal Servicer Error",
            "schema": {
              "$ref": "#/definitions/Error"
            }
          },
          "default": {
            "description": "Unexpected error",
            "schema": {
              "$ref": "#/definitions/Error"
            }
          }
        }
      }
    },
    "/organizations/{orgid}/projects/{prjid}/files": {
      "get": {
        "description": "Gets the details of all filedetails for specified parameters.\n",
        "parameters": [
          {
            "name": "orgid",
            "in": "path",
            "description": "organization id",
            "required": true,
            "type": "string",
            "format": "string"
          },
          {
            "name": "prjid",
            "in": "path",
            "description": "project id",
            "required": true,
            "type": "string",
            "format": "string"
          }
        ],
        "responses": {
          "200": {
            "description": "Array of FileDetails will be returned. Null array will be returned if no FileDetails exists",
            "schema": {
              "type": "array",
              "items": {
                "$ref": "#/definitions/Filedetails"
              }
            }
          },
          "404": {
            "description": "filedetails not found, either it got deleted or does not exists",
            "schema": {
              "$ref": "#/definitions/StandardResponseForError"
            }
          },
          "500": {
            "description": "Internal Servicer Error",
            "schema": {
              "$ref": "#/definitions/Error"
            }
          },
          "default": {
            "description": "Unexpected error",
            "schema": {
              "$ref": "#/definitions/Error"
            }
          }
        }
      }
    },
    "/organizations/{orgid}/projects/{prjid}/files/{fileid}": {
      "get": {
        "description": "Gets the details of all filedetails for specified parameters.\n",
        "parameters": [
          {
            "name": "orgid",
            "in": "path",
            "description": "organization id",
            "required": true,
            "type": "string",
            "format": "string"
          },
          {
            "name": "prjid",
            "in": "path",
            "description": "project id",
            "required": true,
            "type": "string",
            "format": "string"
          },
          {
            "name": "fileid",
            "in": "path",
            "description": "file id",
            "required": true,
            "type": "string",
            "format": "string"
          }
        ],
        "responses": {
          "200": {
            "description": "Array of FileDetails will be returned. Null array will be returned if no FileDetails exists",
            "schema": {
              "type": "array",
              "items": {
                "$ref": "#/definitions/Filedetails"
              }
            }
          },
          "404": {
            "description": "FileDetails not found, either they got deleted or does not exists.",
            "schema": {
              "$ref": "#/definitions/StandardResponseForError"
            }
          },
          "500": {
            "description": "Internal Servicer Error",
            "schema": {
              "$ref": "#/definitions/Error"
            }
          },
          "default": {
            "description": "Unexpected error",
            "schema": {
              "$ref": "#/definitions/Error"
            }
          }
        }
      },
      "patch": {
        "description": "partial updates on the file details\n",
        "parameters": [
          {
            "name": "orgid",
            "in": "path",
            "description": "organization id",
            "required": true,
            "type": "string",
            "format": "string"
          },
          {
            "name": "prjid",
            "in": "path",
            "description": "project id",
            "required": true,
            "type": "string",
            "format": "string"
          },
          {
            "name": "fileid",
            "in": "path",
            "description": "file id",
            "required": true,
            "type": "string",
            "format": "string"
          }
        ],
        "responses": {
          "200": {
            "description": "Update file details properties",
            "schema": {
              "type": "array",
              "items": {
                "$ref": "#/definitions/FileDetailPatchUpdateObject"
              }
            }
          },
          "404": {
            "description": "FileDetails not found, either it got deleted or does not exists",
            "schema": {
              "$ref": "#/definitions/StandardResponseForError"
            }
          },
          "500": {
            "description": "Internal Servicer Error",
            "schema": {
              "$ref": "#/definitions/Error"
            }
          },
          "default": {
            "description": "Unexpected error",
            "schema": {
              "$ref": "#/definitions/Error"
            }
          }
        }
      }
    },
    "/organizations/{orgid}/projects/{prjid}/files/upload/{isproduction}": {
      "post": {
        "description": "Upload files for specified project.\n",
        "consumes": [
          "multipart/form-data"
        ],
        "parameters": [
          {
            "name": "orgid",
            "in": "path",
            "description": "organization id",
            "required": true,
            "type": "string",
            "format": "string"
          },
          {
            "name": "prjid",
            "in": "path",
            "description": "project id",
            "required": true,
            "type": "string",
            "format": "string"
          },
          {
            "name": "isproduction",
            "in": "path",
            "description": "0 for stagging and 1 for production environment",
            "required": true,
            "type": "string",
            "format": "string"
          },
          {
            "name": "data",
            "in": "formData",
            "description": "filestream data",
            "required": true,
            "type": "string",
            "format": "string"
          }
        ],
        "responses": {
          "200": {
            "description": "Array of project will be returned. Empty array will be returned if no project exists",
            "schema": {
              "$ref": "#/definitions/UploadResponse"
            }
          },
          "400": {
            "description": "Invalid ProjectId or ProjectState."
          },
          "410": {
            "description": "Project has been deleted",
            "schema": {
              "$ref": "#/definitions/StandardResponseForError"
            }
          },
          "default": {
            "description": "Unexpected error",
            "schema": {
              "$ref": "#/definitions/Error"
            }
          }
        }
      }
    },
    "/organizations/{orgid}/projects/{prjid}/files/": {
      "post": {
        "description": "Upload files for specified project.\n",
        "consumes": [
          "multipart/form-data"
        ],
        "parameters": [
          {
            "name": "orgid",
            "in": "path",
            "description": "organization id",
            "required": true,
            "type": "string",
            "format": "string"
          },
          {
            "name": "prjid",
            "in": "path",
            "description": "project id",
            "required": true,
            "type": "string",
            "format": "string"
          },
          {
            "name": "requestid",
            "in": "query",
            "description": "0 for stagging and 1 for production environment",
            "required": true,
            "type": "string",
            "format": "string"
          },
          {
            "name": "data",
            "in": "formData",
            "description": "filestream data",
            "required": true,
            "type": "string",
            "format": "string"
          }
        ],
        "responses": {
          "200": {
            "description": "Array of project will be returned. Empty array will be returned if no project exists",
            "schema": {
              "type": "boolean"
            }
          },
          "400": {
            "description": "Invalid ProjectId or ProjectState."
          },
          "410": {
            "description": "Project has been deleted",
            "schema": {
              "$ref": "#/definitions/StandardResponseForError"
            }
          },
          "default": {
            "description": "Unexpected error",
            "schema": {
              "$ref": "#/definitions/Error"
            }
          }
        }
      }
    },
    "/organizations/{orgid}/projects/{prjid}/fileblob/{fileid}": {
      "get": {
        "description": "Gets the fileblob details for specified parameters\n",
        "parameters": [
          {
            "name": "orgid",
            "in": "path",
            "description": "organization id",
            "required": true,
            "type": "string",
            "format": "string"
          },
          {
            "name": "prjid",
            "in": "path",
            "description": "project id",
            "required": true,
            "type": "string",
            "format": "string"
          },
          {
            "name": "fileid",
            "in": "path",
            "description": "file id",
            "required": true,
            "type": "string",
            "format": "string"
          }
        ],
        "responses": {
          "200": {
            "description": "Array of Fileblobs will be returned. Null array will be returned if no FileDetails exists",
            "schema": {
              "type": "array",
              "items": {
                "$ref": "#/definitions/Fileblobs"
              }
            }
          },
          "404": {
            "description": "No FileBlob found, either it got deleted or does not exists",
            "schema": {
              "$ref": "#/definitions/StandardResponseForError"
            }
          },
          "500": {
            "description": "Internal Servicer Error",
            "schema": {
              "$ref": "#/definitions/Error"
            }
          },
          "default": {
            "description": "Unexpected error",
            "schema": {
              "$ref": "#/definitions/Error"
            }
          }
        }
      }
    },
    "/organizations/{orgid}/projects/{prjid}/report": {
      "get": {
        "description": "Get the classification reports. \n",
        "parameters": [
          {
            "name": "orgid",
            "in": "path",
            "description": "organization id",
            "required": true,
            "type": "string",
            "format": "string"
          },
          {
            "name": "prjid",
            "in": "path",
            "description": "project id",
            "required": true,
            "type": "string",
            "format": "string"
          }
        ],
        "responses": {
          "200": {
            "description": "Array of FileWorker will be returned. Null array will be returned if no FileDetails exists",
            "schema": {
              "$ref": "#/definitions/ClassificationAnalysisReport"
            }
          },
          "404": {
            "description": "Data is not available",
            "schema": {
              "$ref": "#/definitions/Error"
            }
          },
          "500": {
            "description": "Internal Servicer Error",
            "schema": {
              "$ref": "#/definitions/Error"
            }
          },
          "default": {
            "description": "Unexpected error",
            "schema": {
              "$ref": "#/definitions/Error"
            }
          }
        }
      }
    },
    "/organizations/{orgid}/projects/{prjid}/filestatus": {
      "get": {
        "description": "gets progress statastics related to file analysis for respective project. \n",
        "parameters": [
          {
            "name": "orgid",
            "in": "path",
            "description": "organization id",
            "required": true,
            "type": "string",
            "format": "string"
          },
          {
            "name": "prjid",
            "in": "path",
            "description": "project id",
            "required": true,
            "type": "string",
            "format": "string"
          }
        ],
        "responses": {
          "200": {
            "description": "Array of FileWorker will be returned. Null array will be returned if no FileDetails exists",
            "schema": {
              "type": "array",
              "items": {
                "$ref": "#/definitions/FileWorker"
              }
            }
          },
          "404": {
            "description": "Data is not available",
            "schema": {
              "$ref": "#/definitions/Error"
            }
          },
          "410": {
            "description": "Project has been deleted",
            "schema": {
              "$ref": "#/definitions/StandardResponseForError"
            }
          },
          "500": {
            "description": "Internal Servicer Error",
            "schema": {
              "$ref": "#/definitions/Error"
            }
          },
          "default": {
            "description": "Unexpected error",
            "schema": {
              "$ref": "#/definitions/Error"
            }
          }
        }
      }
    },
    "/organizations/{orgid}/projects/{prjid}/files/{fileid}/categories/{layoutid}": {
      "post": {
        "description": "update classification id for given fileid\n",
        "parameters": [
          {
            "name": "orgid",
            "in": "path",
            "description": "organization id",
            "required": true,
            "type": "string",
            "format": "string"
          },
          {
            "name": "prjid",
            "in": "path",
            "description": "project id",
            "required": true,
            "type": "string",
            "format": "string"
          },
          {
            "name": "fileid",
            "in": "path",
            "description": "file id",
            "required": true,
            "type": "string",
            "format": "string"
          },
          {
            "name": "layoutid",
            "in": "path",
            "description": "layoutid id",
            "required": true,
            "type": "string",
            "format": "string"
          }
        ],
        "responses": {
          "200": {
            "description": "update successful.",
            "schema": {
              "type": "boolean"
            }
          },
          "404": {
            "description": "FileDetails not found, either it got deleted or does not exists",
            "schema": {
              "$ref": "#/definitions/Error"
            }
          },
          "500": {
            "description": "Internal Servicer Error",
            "schema": {
              "$ref": "#/definitions/Error"
            }
          },
          "default": {
            "description": "Unexpected error",
            "schema": {
              "$ref": "#/definitions/Error"
            }
          }
        }
      }
    },
    "/organizations/{orgid}/projects/{prjid}/files/{fileid}/categories/{layoutid}/{id}": {
      "post": {
        "description": "update classification id for given fileid\n",
        "parameters": [
          {
            "name": "orgid",
            "in": "path",
            "description": "organization id",
            "required": true,
            "type": "string",
            "format": "string"
          },
          {
            "name": "prjid",
            "in": "path",
            "description": "project id",
            "required": true,
            "type": "string",
            "format": "string"
          },
          {
            "name": "fileid",
            "in": "path",
            "description": "file id",
            "required": true,
            "type": "string",
            "format": "string"
          },
          {
            "name": "layoutid",
            "in": "path",
            "description": "layoutid id",
            "required": true,
            "type": "string",
            "format": "string"
          },
          {
            "name": "id",
            "in": "path",
            "description": "classification id",
            "required": true,
            "type": "string",
            "format": "string"
          }
        ],
        "responses": {
          "200": {
            "description": "update successful.",
            "schema": {
              "type": "boolean"
            }
          },
          "404": {
            "description": "FileDetails not found, either it got deleted or does not exists",
            "schema": {
              "$ref": "#/definitions/StandardResponseForError"
            }
          },
          "500": {
            "description": "Internal Servicer Error",
            "schema": {
              "$ref": "#/definitions/Error"
            }
          },
          "default": {
            "description": "Unexpected error",
            "schema": {
              "$ref": "#/definitions/Error"
            }
          }
        }
      }
    },
    "/organizations/{orgid}/projects/{prjid}/categories/{id}/files/{fileid}": {
      "delete": {
        "description": "delete specified file.\n",
        "parameters": [
          {
            "name": "orgid",
            "in": "path",
            "description": "organization id",
            "required": true,
            "type": "string",
            "format": "string"
          },
          {
            "name": "prjid",
            "in": "path",
            "description": "project id",
            "required": true,
            "type": "string",
            "format": "string"
          },
          {
            "name": "id",
            "in": "path",
            "description": "classification id",
            "required": true,
            "type": "string",
            "format": "string"
          },
          {
            "name": "fileid",
            "in": "path",
            "description": "file id",
            "required": true,
            "type": "string",
            "format": "string"
          }
        ],
        "responses": {
          "200": {
            "description": "file deleted successfully",
            "schema": {
              "type": "boolean"
            }
          },
          "500": {
            "description": "Internal Servicer Error",
            "schema": {
              "$ref": "#/definitions/Error"
            }
          },
          "default": {
            "description": "Unexpected error",
            "schema": {
              "$ref": "#/definitions/Error"
            }
          }
        }
      }
    },
    "/segmenteddocument/{fileid}": {
      "get": {
        "description": "get segmented document\n",
        "parameters": [
          {
            "name": "fileid",
            "in": "path",
            "description": "file id",
            "required": true,
            "type": "string",
            "format": "string"
          }
        ],
        "responses": {
          "200": {
            "description": "Segmented document found and returned",
            "schema": {
              "type": "string"
            }
          },
          "404": {
            "description": "Segmented document not found",
            "schema": {
              "type": "string"
            }
          },
          "500": {
            "description": "Internal Servicer Error",
            "schema": {
              "$ref": "#/definitions/Error"
            }
          },
          "default": {
            "description": "Unexpected error",
            "schema": {
              "$ref": "#/definitions/Error"
            }
          }
        }
      },
      "post": {
        "description": "add segmented document\n",
        "parameters": [
          {
            "name": "fileid",
            "in": "path",
            "description": "file id",
            "required": true,
            "type": "string",
            "format": "string"
          },
          {
            "name": "segmentedDocument",
            "in": "body",
            "description": "The pet JSON you want to post",
            "schema": {
              "type": "string"
            },
            "required": true
          }
        ],
        "responses": {
          "200": {
            "description": "Segmented document uploaded successsfully",
            "schema": {
              "type": "string"
            }
          },
          "500": {
            "description": "Internal Servicer Error",
            "schema": {
              "$ref": "#/definitions/Error"
            }
          },
          "default": {
            "description": "Unexpected error",
            "schema": {
              "$ref": "#/definitions/Error"
            }
          }
        }
      }
    },
    "/organizations/{orgid}/projects/{prjid}/categories/{id}/files/staging": {
      "get": {
        "description": "Gets the staging filedetails for specified parameters.\n",
        "parameters": [
          {
            "name": "orgid",
            "in": "path",
            "description": "organization id",
            "required": true,
            "type": "string",
            "format": "string"
          },
          {
            "name": "prjid",
            "in": "path",
            "description": "project id",
            "required": true,
            "type": "string",
            "format": "string"
          },
          {
            "name": "id",
            "in": "path",
            "description": "classification id",
            "required": true,
            "type": "string",
            "format": "string"
          }
        ],
        "responses": {
          "200": {
            "description": "Array of FileDetails will be returned. Null array will be returned if no FileDetails exists",
            "schema": {
              "type": "array",
              "items": {
                "$ref": "#/definitions/Filedetails"
              }
            }
          },
          "404": {
            "description": "filedetails not found. No staging files available",
            "schema": {
              "$ref": "#/definitions/StandardResponseForError"
            }
          },
          "500": {
            "description": "Internal Servicer Error",
            "schema": {
              "$ref": "#/definitions/Error"
            }
          },
          "default": {
            "description": "Unexpected error",
            "schema": {
              "$ref": "#/definitions/Error"
            }
          }
        }
      }
    },
    "/organizations/{orgid}/projects/{prjid}/classificationsummary": {
      "get": {
        "description": "Get summary details for staging and production state based on project ID.\n",
        "parameters": [
          {
            "name": "orgid",
            "in": "path",
            "description": "Organization ID",
            "required": true,
            "type": "string",
            "format": "string"
          },
          {
            "name": "prjid",
            "in": "path",
            "description": "Project ID",
            "required": true,
            "type": "string",
            "format": "string"
          }
        ],
        "responses": {
          "200": {
            "description": "summary details of learning instance categorized by environment(i.e staging,production)",
            "schema": {
              "type": "array",
              "items": {
                "$ref": "#/definitions/LearningInstanceSummary"
              }
            }
          },
          "400": {
            "description": "Request is not valid, please check if you are passing the right orgid and project id.",
            "schema": {
              "$ref": "#/definitions/StandardResponseForError"
            }
          },
          "500": {
            "description": "Internal Service Error",
            "schema": {
              "$ref": "#/definitions/Error"
            }
          },
          "default": {
            "description": "Unexpected error",
            "schema": {
              "$ref": "#/definitions/Error"
            }
          }
        }
      }
    },
    "/organizations/{orgid}/projects/{prjid}/reclassify": {
      "get": {
        "description": "Trigger classification of non-classified documents\n",
        "parameters": [
          {
            "name": "orgid",
            "in": "path",
            "description": "Organization ID",
            "required": true,
            "type": "string",
            "format": "string"
          },
          {
            "name": "prjid",
            "in": "path",
            "description": "Project ID",
            "required": true,
            "type": "string",
            "format": "string"
          }
        ],
        "responses": {
          "200": {
            "description": "List of document id sent for reclassification",
            "schema": {
              "type": "array",
              "items": {
                "type": "string"
              }
            }
          },
          "400": {
            "description": "Request is not valid, please check if you are passing the right orgid and project id.",
            "schema": {
              "$ref": "#/definitions/StandardResponseForError"
            }
          },
          "500": {
            "description": "Internal Service Error",
            "schema": {
              "$ref": "#/definitions/Error"
            }
          },
          "default": {
            "description": "Unexpected error",
            "schema": {
              "$ref": "#/definitions/Error"
            }
          }
        }
      }
    },
    "/organizations/{orgid}/files/{fileid}/segmenteddocument": {
      "delete": {
        "description": "delete specified file's segmented document",
        "parameters": [
          {
            "name": "orgid",
            "in": "path",
            "description": "organization id",
            "required": true,
            "type": "string",
            "format": "string"
          },
          {
            "name": "fileid",
            "in": "path",
            "description": "file id",
            "required": true,
            "type": "string",
            "format": "string"
          }
        ],
        "responses": {
          "200": {
            "description": "segmented document deleted successfully",
            "schema": {
              "type": "boolean"
            }
          },
          "500": {
            "description": "Internal Servicer Error",
            "schema": {
              "$ref": "#/definitions/Error"
            }
          },
          "default": {
            "description": "Unexpected error",
            "schema": {
              "$ref": "#/definitions/Error"
            }
          }
        }
      }
    }
  },
  "definitions": {
    "Categories": {
      "type": "object",
      "properties": {
        "offset": {
          "type": "integer",
          "description": "Index of the first element returned by the request"
        },
        "limit": {
          "type": "integer",
          "description": "The number of records returned by the request. If not specified return all records, the return object will set limit to -1\n"
        },
        "sort": {
          "type": "string",
          "description": "The categories list field that sort was applied to\n"
        },
        "categories": {
          "type": "array",
          "items": {
            "$ref": "#/definitions/Category"
          }
        }
      }
    },
    "Category": {
      "type": "object",
      "properties": {
        "id": {
          "type": "string",
          "description": "identity."
        },
        "name": {
          "type": "string",
          "description": "category name."
        },
        "categoryDetail": {
          "$ref": "#/definitions/CategoryDetail"
        },
        "visionBot": {
          "$ref": "#/definitions/VisionBot"
        },
        "fileCount": {
          "type": "integer",
          "description": "number of classified files in this category"
        },
        "files": {
          "type": "array",
          "description": "obsolete, will return null",
          "items": {
            "$ref": "#/definitions/File"
          }
        },
        "productionFileDetails": {
          "$ref": "#/definitions/FileCount"
        },
        "stagingFileDetails": {
          "$ref": "#/definitions/FileCount"
        }
      }
    },
    "VisionBot": {
      "type": "object",
      "properties": {
        "id": {
          "type": "string",
          "description": "identity."
        },
        "name": {
          "type": "string",
          "description": "visionbot name."
        },
        "currentState": {
          "type": "string",
          "description": "current status of visionbot."
        }
      }
    },
    "File": {
      "type": "object",
      "properties": {
        "id": {
          "type": "string",
          "description": "identity."
        },
        "name": {
          "type": "string",
          "description": "visionbot name."
        },
        "location": {
          "type": "string",
          "description": "relative path."
        },
        "format": {
          "type": "string",
          "description": "type of the document."
        },
        "processed": {
          "type": "boolean",
          "description": "??."
        }
      }
    },
    "FileCount": {
      "type": "object",
      "properties": {
        "totalCount": {
          "type": "integer",
          "description": "number of files."
        },
        "totalSTPCount": {
          "type": "integer",
          "description": "number of files through straight pass."
        },
        "unprocessedCount": {
          "type": "integer",
          "description": "number of unprocessed files."
        }
      }
    },
    "Filedetails": {
      "type": "object",
      "properties": {
        "fileId": {
          "type": "string",
          "description": "File Details model."
        },
        "projectId": {
          "type": "string",
          "description": "Description of product."
        },
        "fileName": {
          "type": "string",
          "description": "Display name of filename."
        },
        "fileLocation": {
          "type": "string",
          "description": "Display of filelocation."
        },
        "fileSize": {
          "type": "integer",
          "format": "int32",
          "description": "Display of filesize."
        },
        "fileHeight": {
          "type": "integer",
          "format": "int32",
          "description": "Display of fileheight."
        },
        "fileWidth": {
          "type": "integer",
          "format": "int32",
          "description": "Display of filewidth."
        },
        "format": {
          "type": "string",
          "description": "Display of format."
        },
        "processed": {
          "type": "boolean",
          "description": "Display of processed."
        },
        "classificationId": {
          "type": "string",
          "description": "content based classificationid."
        },
        "uploadrequestId": {
          "type": "string",
          "description": "Display of uploadrequestid."
        },
        "layoutId": {
          "type": "string",
          "description": "layout classification id."
        },
        "isProduction": {
          "type": "string",
          "description": "stagging then 0 , production then 1"
        }
      }
    },
    "ClassificationAnalysisReport": {
      "type": "object",
      "properties": {
        "projectId": {
          "type": "string",
          "description": "Project Id."
        },
        "totalDocuments": {
          "type": "string",
          "description": "Total number of classified documents."
        },
        "allCategoryDetail": {
          "type": "array",
          "items": {
            "$ref": "#/definitions/CategoryDetail"
          },
          "description": "Display the details of specific categories"
        }
      }
    },
    "CategoryDetail": {
      "type": "object",
      "properties": {
        "id": {
          "type": "integer",
          "description": "Category Id"
        },
        "noOfDocuments": {
          "type": "integer",
          "description": "Number of document in current category"
        },
        "priority": {
          "type": "integer",
          "description": "Priority of current category"
        },
        "index": {
          "type": "integer",
          "description": "Index of current category"
        },
        "allFieldDetail": {
          "type": "array",
          "items": {
            "$ref": "#/definitions/Fielddetail"
          },
          "description": "Display the details of specific fields in that category"
        }
      }
    },
    "Fielddetail": {
      "type": "object",
      "properties": {
        "fieldId": {
          "type": "string",
          "description": "Field ID"
        },
        "foundInTotalDocs": {
          "type": "number",
          "description": "Current Field found in total number of documents"
        }
      }
    },
    "FileDetailPatchUpdateObject": {
      "type": "object",
      "properties": {
        "op": {
          "type": "string",
          "description": "the operation to perform (e.g. replace/remove)"
        },
        "path": {
          "type": "string",
          "description": "path to the data model property (e.g. processed)"
        },
        "value": {
          "type": "string",
          "description": "new value against resource"
        }
      }
    },
    "CountStatistic": {
      "type": "object",
      "properties": {
        "projectId": {
          "type": "string",
          "description": "Project Id."
        },
        "categoryId": {
          "type": "string",
          "description": "Category Id."
        },
        "fileCount": {
          "type": "integer",
          "description": "Display the total count of files."
        },
        "stagingFileCount": {
          "$ref": "#/definitions/EnvironmentCountStatistic",
          "description": "Display the file statistics for staging."
        },
        "productionFileCount": {
          "$ref": "#/definitions/EnvironmentCountStatistic",
          "description": "Display the file statistics for production."
        }
      }
    },
    "EnvironmentCountStatistic": {
      "type": "object",
      "properties": {
        "unprocessedCount": {
          "type": "integer",
          "description": "Get unprocessed file count"
        },
        "totalCount": {
          "type": "integer",
          "description": "Get total file count"
        }
      }
    },
    "UploadResponse": {
      "type": "object",
      "properties": {
        "key": {
          "type": "string",
          "description": "Upload Job Id string 'fileUploadJobId'"
        },
        "value": {
          "type": "string",
          "description": "upload request Id"
        }
      }
    },
    "Fileblobs": {
      "type": "object",
      "properties": {
        "fileId": {
          "type": "string",
          "description": "FileBlob model"
        },
        "fileBlob": {
          "type": "array",
          "items": {
            "$ref": "#/definitions/Filedetails"
          },
          "description": "[ISO 4217](http://en.wikipedia.org/wiki/ISO_4217) currency code."
        }
      }
    },
    "Error": {
      "type": "object",
      "properties": {
        "code": {
          "type": "integer",
          "format": "int32"
        },
        "message": {
          "type": "string"
        },
        "fields": {
          "type": "string"
        }
      }
    },
    "FileWorker": {
      "type": "object",
      "properties": {
        "projectId": {
          "type": "string",
          "description": "project id"
        },
        "currentProcessingObject": {
          "type": "string",
          "description": "empty"
        },
        "totalFileCount": {
          "type": "integer",
          "description": "Total Files uploaded under project."
        },
        "totalProcessedCount": {
          "type": "integer",
          "description": "Total classified file count under project."
        },
        "estimatedTimeRemainingInMins": {
          "type": "integer",
          "description": "Total estimated time for remaining analysis of the document."
        },
        "complete": {
          "type": "boolean",
          "description": "completed"
        }
      }
    },
    "LearningInstanceSummary": {
      "type": "object",
      "properties": {
        "stagingFileSummary": {
          "$ref": "#/definitions/Summary",
          "description": "Displays the learning instance summary for staging."
        },
        "productionFileSummary": {
          "$ref": "#/definitions/Summary",
          "description": "Displays the learning instance summary for production."
        }
      }
    },
    "Summary": {
      "type": "object",
      "properties": {
        "totalGroups": {
          "type": "integer",
          "description": "Fetches count of total groups created."
        },
        "documentsUnclassified": {
          "type": "integer",
          "description": "Fetches count of unclassified documents."
        },
        "totalFiles": {
          "type": "integer",
          "description": "Fetches count of total files uploaded."
        }
      }
    },
    "StandardResponseForError": {
      "type": "object",
      "properties": {
        "success": {
          "type": "boolean",
          "description": "returns whether operation is successful or not"
        },
        "data": {
          "type": "string",
          "description": "json data if any"
        },
        "errors": {
          "type": "string",
          "description": "error description"
        }
      }
    }
  }
}