{
  "$schema": "http://json-schema.org/draft-04/schema#",
  "type": "object",
  "properties": {
    "success": {
      "type": "boolean"
    },
    "data": {
      "type": "object",
      "properties": {
        "projectId": {
          "type": ["string", "null"]
        },
        "processedFiles": {
          "type": "integer"
        },
        "successFiles": {
          "type": "integer"
        },
        "reviewFiles": {
          "type": "integer"
        },
        "invalidFiles": {
          "type": "integer"
        },
        "pendingForReview": {
          "type": "integer"
        },
        "accuracy": {
          "type": "number"
        }
      }
    }
  },
  "required": [
    "success", "data"
  ],
  "additionalProperties": false
}