{
  "$schema": "http://json-schema.org/draft-04/schema#",
  "type": "object",
  "$ref": "#/definitions/Response",
  "additionalProperties": false,
  "definitions": {
    "Response": {
      "type": "object",
      "properties": {
        "success": {
          "type": "boolean"
        },
        "data": {
          "type": [
            "array",
            "null"
          ],
          "items": {
            "$ref": "#/definitions/ProjectType"
          }
        },
        "errors": {
          "type": [
            "string",
            "null"
          ]
        }
      }
    },
    "ProjectType": {
      "type": "object",
      "properties": {
        "id": {
          "type": "string"
        },
        "name": {
          "type": "string"
        },
        "description": {
          "type": [
            "string",
            "null"
          ]
        },
        "fields": {
          "type": "array",
          "items": {
            "$ref": "#/definitions/ProjectField"
          }
        },
        "languages": {
          "type": [
            "array",
            "null"
          ],
          "items": {
            "$ref": "#/definitions/Language"
          }
        }
      }
    },
    "ProjectField": {
      "type": "object",
      "properties": {
        "id": {
          "type": "string"
        },
        "name": {
          "type": "string"
        },
        "description": {
          "type": [
            "string",
            "null"
          ]
        },
        "fieldType": {
          "type": "string"
        },
        "aliases": {
          "type": "array",
          "items": {
            "type": "string"
          }
        }
      },
      "isDefaultSelected": {
        "type": "boolean"
      },
      "dataType": {
        "type": "string"
      }
    },
    "Language": {
      "type": "object",
      "properties": {
        "id": {
          "type": "integer"
        },
        "name": {
          "type": "string"
        },
        "code": {
          "type": "string"
        }
      }
    }
  }
}