{
  "$schema": "http://json-schema.org/draft-04/schema#",
  "type": "object",
  "properties": {
    "projectExportDetails": {
      "type": "array",
      "items": {
        "type": "string"
      }
    },
    "archiveName": {
      "type": "string"
    },
    "userId": {
      "type": "string"
    }
  },
  "additionalProperties": false
}