{
  "$schema": "http://json-schema.org/draft-04/schema#",
  "type": "object",
  "properties": {
    "success": {
      "type": "boolean"
    },
    "data": {
      "type": "array",
      "items": {
        "type": "object",
        "properties": {
          "projectId": {
            "type": "string"
          },
          "processedCount": {
            "type": "integer"
          },
          "failedFileCount": {
            "type": "integer"
          },
          "reviewFileCount": {
            "type": "integer"
          },
          "invalidFileCount": {
            "type": "integer"
          }
        }
      }
    }
  },
  "required": [
    "success", "data"
  ],
  "additionalProperties": false
}