{
	"OCREngineSettings": {
		"Tesseract3_Settings":{
			"TessdataPath" : "tessdata_path_template"
		},
		"Tesseract4_Settings": {
			"TessdataPath" : "tessdata4_path_template"
		},
		"Abbyy_Settings" : {
			"EnginePath": ""
		}
	}
}
